GIS 1887
================
Ye Seul Byeon
5/16/2018

``` r
#reading in excel file
#list.files('data')
tabular <- read_xlsx('data/JapanG_RawData_beta.xlsx')
tabular
```

    ## # A tibble: 718 x 205
    ##    KGun_ID Kuni_ID M17G_ID Ken_Nm Kuni_Nm Gun_Nm     MeijiYear Notes      
    ##      <dbl>   <dbl>   <dbl> <chr>  <chr>   <chr>      <chr>     <chr>      
    ##  1     101       1       1 Aomori Mutsu   Higashits… M20       <NA>       
    ##  2     102       1       2 Aomori Mutsu   Nishitsug… M20       <NA>       
    ##  3     103       1       3 Aomori Mutsu   Nakatsuga… M20       <NA>       
    ##  4     104       1       4 Aomori Mutsu   Minamitsu… M20       <NA>       
    ##  5     105       1       5 Aomori Mutsu   Kitatsuga… M20       <NA>       
    ##  6     106       1       6 Aomori Mutsu   Kamikita   M20       <NA>       
    ##  7     107       1       7 Aomori Mutsu   Shitakita  M20       <NA>       
    ##  8     108       1       8 Aomori Mutsu   Sannohe    M20       <NA>       
    ##  9     109       1       9 Aomori Mutsu   Ninohe     M22       <NA>       
    ## 10     201       2       1 Iwate  Rikuchû Nishiiwai  M22       Cells with…
    ## # ... with 708 more rows, and 197 more variables: RSI_19Sep07 <dbl>,
    ## #   RSIX19Sep07 <dbl>, RSI_11Sep07 <dbl>, RSIX11Sept07 <dbl>,
    ## #   RSI_9Jun07 <dbl>, RSIX9Jun07 <chr>, CPZ <chr>, Hi_LUH <chr>,
    ## #   Sum_Pop <chr>, URC <dbl>, Pct_class <dbl>, Size_class <dbl>,
    ## #   Pct_Urb <dbl>, AreaGIS <dbl>, Calc_Pop <chr>, JPT_ID <chr>,
    ## #   G277 <chr>, G278 <chr>, G001_cho <dbl>, G001_km2 <dbl>,
    ## #   G002_cho <dbl>, G282_km2 <dbl>, G1_G2 <dbl>, Missing <dbl>,
    ## #   G4_G5 <dbl>, G004_cho <dbl>, G005_cho <dbl>, G006_cho <dbl>,
    ## #   G007_yen <dbl>, G009_cho <dbl>, G010_yen <dbl>, G137 <dbl>,
…
